{
  "puppet_task_version": 1,
  "supports_noop": false,
  "description": "Save the gpu rom bios to s3",
  "parameters": {
    "backup_path": {
      "description": "Where to backup files too",
      "type": "Stdlib::AbsolutePath"
    },
    "s3_bucket": {
      "description": "The s3 bucket to save too",
      "type": "Optional[String]"
    },
    "s3_access_key": {
      "description": "The s3 access key",
      "type": "Optional[String]"
    },
    "s3_secret_key": {
      "description": "The s3 secret key",
      "type": "Optional[String]"
    }
  }
}
