{
  "description": "Upgrade crossbelt on one or more systems",
  "supports_noop": false,
  "parameters": {
    "channel": {
      "description": "The repo distribution channel",
      "type": "Enum[testing, unstable, stable]"
    }
  },
  "implementations" : [
    {"name": "upgrade.sh", "requirements": ["shell"], "input_method": "environment"}
  ]
}
